outputs/blue_sand/reg_access_test/run.log
Command: /home/st102/Training/outputs/blue_sand/simv +UVM_TESTNAME=reg_access_test -l /home/st102/Training/outputs/blue_sand/reg_access_test/run.log +ntb_random_seed=20624 +UVM_VERBOSITY=UVM_MEDIUM +vcs+lic+wait -ucli -i /home/st102/Training/outputs/blue_sand/reg_access_test/dump_config.ucli
Chronologic VCS simulator copyright 1991-2022
Contains Synopsys proprietary information.
Compiler version T-2022.06-SP2_Full64; Runtime version T-2022.06-SP2_Full64;  Jul  9 17:10 2026
UVM_INFO /usr/synopsys/vcs/T-2022.06-SP2/etc/uvm-1.2/base/uvm_root.svh(402) @ 0: reporter [UVM/RELNOTES] 
----------------------------------------------------------------
UVM-1.2.Synopsys
(C) 2007-2014 Mentor Graphics Corporation
(C) 2007-2014 Cadence Design Systems, Inc.
(C) 2006-2014 Synopsys, Inc.
(C) 2011-2013 Cypress Semiconductor Corp.
(C) 2013-2014 NVIDIA Corporation
----------------------------------------------------------------

  ***********       IMPORTANT RELEASE NOTES         ************

  You are using a version of the UVM library that has been compiled
  with `UVM_NO_DEPRECATED undefined.
  See http://www.eda.org/svdb/view.php?id=3313 for more details.

  You are using a version of the UVM library that has been compiled
  with `UVM_OBJECT_DO_NOT_NEED_CONSTRUCTOR undefined.
  See http://www.eda.org/svdb/view.php?id=3770 for more details.

      (Specify +UVM_NO_RELNOTES to turn off this notice)

ucli% config timebase 1NS
1ns
ucli% dump -file waveform.fsdb -type FSDB
*Verdi* Loading libsscore_vcs202206.so
FSDB Dumper for VCS, Release Verdi_T-2022.06-SP2, Linux x86_64/64bit, 11/22/2022
(C) 1996 - 2022 by Synopsys, Inc.
*Verdi* FSDB WARNING: The FSDB file already exists. Overwriting the FSDB file may crash the programs that are using this file.
*Verdi* : Create FSDB file 'waveform.fsdb'
FSDB0
ucli% dump -add / -depth 0 -fid FSDB0 -fsdb_opt +all
*Verdi* : Begin traversing the scope (/), layer (0).
*Verdi* : Enable +all dumping.
*Verdi* : End of traversing.
*Verdi* : Flush all FSDB Files at 0 ns.
1
ucli% run
UVM_INFO @ 0: reporter [RNTST] Running test reg_access_test...
UVM_INFO /usr/synopsys/vcs/T-2022.06-SP2/etc/uvm-1.2/base/uvm_root.svh(589) @ 0: reporter [UVMTOP] UVM testbench topology:
----------------------------------------------------------------
Name                       Type                      Size  Value
----------------------------------------------------------------
uvm_test_top               reg_access_test           -     @352 
  my_env                   env                       -     @365 
    agt_apb                agent_apb                 -     @375 
      drv0                 driver_apb                -     @541 
        rsp_port           uvm_analysis_port         -     @560 
        seq_item_port      uvm_seq_item_pull_port    -     @550 
      mon0                 monitor_apb               -     @570 
        mon_analysis_port  uvm_analysis_port         -     @580 
      seqr0                uvm_sequencer             -     @404 
        rsp_export         uvm_analysis_export       -     @413 
        seq_item_export    uvm_seq_item_pull_imp     -     @531 
        arbitration_queue  array                     0     -    
        lock_queue         array                     0     -    
        num_last_reqs      integral                  32    'd1  
        num_last_rsps      integral                  32    'd1  
    agt_counter            agent_counter             -     @384 
      mon0                 monitor_counter           -     @597 
        mon_analysis_port  uvm_analysis_port         -     @606 
    scbd_counter           scoreboard_counter        -     @393 
      data_export_apb      uvm_analysis_imp_apb      -     @617 
      data_export_counter  uvm_analysis_imp_counter  -     @627 
----------------------------------------------------------------

UVM_INFO /home/st102/Training/projects/blue_sand/verif/sv/driver_apb.sv(29) @ 0: uvm_test_top.my_env.agt_apb.drv0 [drv0] Waiting for data from sequencer
UVM_INFO /home/st102/Training/projects/blue_sand/verif/seq/apb_read_write_seq.sv(23) @ 470: uvm_test_top.my_env.agt_apb.seqr0@@my_seq [SEQ] Generate new item
UVM_INFO /home/st102/Training/projects/blue_sand/verif/seq/apb_read_write_seq.sv(24) @ 470: uvm_test_top.my_env.agt_apb.seqr0@@my_seq [SEQ] Seq send PKT to Driver: ADDR = 1, pwrite = 1, pwdata = 32af042b, prdata = 0, pslverr = 0, delay = 1
UVM_INFO /home/st102/Training/projects/blue_sand/verif/sv/driver_apb.sv(29) @ 610: uvm_test_top.my_env.agt_apb.drv0 [drv0] Waiting for data from sequencer
UVM_INFO /home/st102/Training/projects/blue_sand/verif/seq/apb_read_write_seq.sv(23) @ 610: uvm_test_top.my_env.agt_apb.seqr0@@my_seq [SEQ] Generate new item
UVM_INFO /home/st102/Training/projects/blue_sand/verif/seq/apb_read_write_seq.sv(24) @ 610: uvm_test_top.my_env.agt_apb.seqr0@@my_seq [SEQ] Seq send PKT to Driver: ADDR = 0, pwrite = 0, pwdata = 85b59ef, prdata = 0, pslverr = 0, delay = 5
UVM_INFO /home/st102/Training/projects/blue_sand/verif/sv/driver_apb.sv(29) @ 830: uvm_test_top.my_env.agt_apb.drv0 [drv0] Waiting for data from sequencer
UVM_INFO /home/st102/Training/projects/blue_sand/verif/seq/apb_read_write_seq.sv(23) @ 830: uvm_test_top.my_env.agt_apb.seqr0@@my_seq [SEQ] Generate new item
UVM_INFO /home/st102/Training/projects/blue_sand/verif/seq/apb_read_write_seq.sv(24) @ 830: uvm_test_top.my_env.agt_apb.seqr0@@my_seq [SEQ] Seq send PKT to Driver: ADDR = 1, pwrite = 0, pwdata = fa7b1ebd, prdata = 0, pslverr = 0, delay = 0
UVM_INFO /home/st102/Training/projects/blue_sand/verif/sv/driver_apb.sv(29) @ 950: uvm_test_top.my_env.agt_apb.drv0 [drv0] Waiting for data from sequencer
UVM_INFO /home/st102/Training/projects/blue_sand/verif/seq/apb_read_write_seq.sv(23) @ 950: uvm_test_top.my_env.agt_apb.seqr0@@my_seq [SEQ] Generate new item
UVM_INFO /home/st102/Training/projects/blue_sand/verif/seq/apb_read_write_seq.sv(24) @ 950: uvm_test_top.my_env.agt_apb.seqr0@@my_seq [SEQ] Seq send PKT to Driver: ADDR = 2, pwrite = 0, pwdata = 45bd4a66, prdata = 0, pslverr = 0, delay = 5
UVM_INFO /home/st102/Training/projects/blue_sand/verif/sv/driver_apb.sv(29) @ 1170: uvm_test_top.my_env.agt_apb.drv0 [drv0] Waiting for data from sequencer
UVM_INFO /home/st102/Training/projects/blue_sand/verif/seq/apb_read_write_seq.sv(23) @ 1170: uvm_test_top.my_env.agt_apb.seqr0@@my_seq [SEQ] Generate new item
UVM_INFO /home/st102/Training/projects/blue_sand/verif/seq/apb_read_write_seq.sv(24) @ 1170: uvm_test_top.my_env.agt_apb.seqr0@@my_seq [SEQ] Seq send PKT to Driver: ADDR = 5, pwrite = 1, pwdata = 1caf01c2, prdata = 0, pslverr = 0, delay = 2
UVM_INFO /home/st102/Training/projects/blue_sand/verif/sv/driver_apb.sv(29) @ 1330: uvm_test_top.my_env.agt_apb.drv0 [drv0] Waiting for data from sequencer
UVM_INFO /home/st102/Training/projects/blue_sand/verif/seq/apb_read_write_seq.sv(23) @ 1330: uvm_test_top.my_env.agt_apb.seqr0@@my_seq [SEQ] Generate new item
UVM_INFO /home/st102/Training/projects/blue_sand/verif/seq/apb_read_write_seq.sv(24) @ 1330: uvm_test_top.my_env.agt_apb.seqr0@@my_seq [SEQ] Seq send PKT to Driver: ADDR = 4, pwrite = 1, pwdata = 80e68993, prdata = 0, pslverr = 0, delay = 2
UVM_INFO /home/st102/Training/projects/blue_sand/verif/sv/driver_apb.sv(29) @ 1490: uvm_test_top.my_env.agt_apb.drv0 [drv0] Waiting for data from sequencer
UVM_INFO /home/st102/Training/projects/blue_sand/verif/seq/apb_read_write_seq.sv(23) @ 1490: uvm_test_top.my_env.agt_apb.seqr0@@my_seq [SEQ] Generate new item
UVM_INFO /home/st102/Training/projects/blue_sand/verif/seq/apb_read_write_seq.sv(24) @ 1490: uvm_test_top.my_env.agt_apb.seqr0@@my_seq [SEQ] Seq send PKT to Driver: ADDR = 3, pwrite = 0, pwdata = d7c9f522, prdata = 0, pslverr = 0, delay = 2
UVM_INFO /home/st102/Training/projects/blue_sand/verif/sv/driver_apb.sv(29) @ 1650: uvm_test_top.my_env.agt_apb.drv0 [drv0] Waiting for data from sequencer
UVM_INFO /home/st102/Training/projects/blue_sand/verif/seq/apb_read_write_seq.sv(23) @ 1650: uvm_test_top.my_env.agt_apb.seqr0@@my_seq [SEQ] Generate new item
UVM_INFO /home/st102/Training/projects/blue_sand/verif/seq/apb_read_write_seq.sv(24) @ 1650: uvm_test_top.my_env.agt_apb.seqr0@@my_seq [SEQ] Seq send PKT to Driver: ADDR = 6, pwrite = 0, pwdata = 85a4290d, prdata = 0, pslverr = 0, delay = 5
UVM_INFO /home/st102/Training/projects/blue_sand/verif/sv/driver_apb.sv(29) @ 1870: uvm_test_top.my_env.agt_apb.drv0 [drv0] Waiting for data from sequencer
UVM_INFO /home/st102/Training/projects/blue_sand/verif/seq/apb_read_write_seq.sv(23) @ 1870: uvm_test_top.my_env.agt_apb.seqr0@@my_seq [SEQ] Generate new item
UVM_INFO /home/st102/Training/projects/blue_sand/verif/seq/apb_read_write_seq.sv(24) @ 1870: uvm_test_top.my_env.agt_apb.seqr0@@my_seq [SEQ] Seq send PKT to Driver: ADDR = 1, pwrite = 1, pwdata = d94a63eb, prdata = 0, pslverr = 0, delay = 3
UVM_INFO /home/st102/Training/projects/blue_sand/verif/sv/driver_apb.sv(29) @ 2050: uvm_test_top.my_env.agt_apb.drv0 [drv0] Waiting for data from sequencer
UVM_INFO /home/st102/Training/projects/blue_sand/verif/seq/apb_read_write_seq.sv(23) @ 2050: uvm_test_top.my_env.agt_apb.seqr0@@my_seq [SEQ] Generate new item
UVM_INFO /home/st102/Training/projects/blue_sand/verif/seq/apb_read_write_seq.sv(24) @ 2050: uvm_test_top.my_env.agt_apb.seqr0@@my_seq [SEQ] Seq send PKT to Driver: ADDR = 2, pwrite = 1, pwdata = 89dcba9f, prdata = 0, pslverr = 0, delay = 1
UVM_INFO /home/st102/Training/projects/blue_sand/verif/sv/driver_apb.sv(29) @ 2190: uvm_test_top.my_env.agt_apb.drv0 [drv0] Waiting for data from sequencer
UVM_INFO /home/st102/Training/projects/blue_sand/verif/seq/apb_read_write_seq.sv(23) @ 2190: uvm_test_top.my_env.agt_apb.seqr0@@my_seq [SEQ] Generate new item
UVM_INFO /home/st102/Training/projects/blue_sand/verif/seq/apb_read_write_seq.sv(24) @ 2190: uvm_test_top.my_env.agt_apb.seqr0@@my_seq [SEQ] Seq send PKT to Driver: ADDR = 2, pwrite = 1, pwdata = 4cce7a53, prdata = 0, pslverr = 0, delay = 5
UVM_INFO /home/st102/Training/projects/blue_sand/verif/sv/driver_apb.sv(29) @ 2410: uvm_test_top.my_env.agt_apb.drv0 [drv0] Waiting for data from sequencer
UVM_INFO /home/st102/Training/projects/blue_sand/verif/seq/apb_read_write_seq.sv(23) @ 2410: uvm_test_top.my_env.agt_apb.seqr0@@my_seq [SEQ] Generate new item
UVM_INFO /home/st102/Training/projects/blue_sand/verif/seq/apb_read_write_seq.sv(24) @ 2410: uvm_test_top.my_env.agt_apb.seqr0@@my_seq [SEQ] Seq send PKT to Driver: ADDR = 4, pwrite = 1, pwdata = 18f57d81, prdata = 0, pslverr = 0, delay = 0
UVM_INFO /home/st102/Training/projects/blue_sand/verif/sv/driver_apb.sv(29) @ 2530: uvm_test_top.my_env.agt_apb.drv0 [drv0] Waiting for data from sequencer
UVM_INFO /home/st102/Training/projects/blue_sand/verif/seq/apb_read_write_seq.sv(23) @ 2530: uvm_test_top.my_env.agt_apb.seqr0@@my_seq [SEQ] Generate new item
UVM_INFO /home/st102/Training/projects/blue_sand/verif/seq/apb_read_write_seq.sv(24) @ 2530: uvm_test_top.my_env.agt_apb.seqr0@@my_seq [SEQ] Seq send PKT to Driver: ADDR = 6, pwrite = 1, pwdata = 50300f6, prdata = 0, pslverr = 0, delay = 4
UVM_INFO /home/st102/Training/projects/blue_sand/verif/sv/driver_apb.sv(29) @ 2730: uvm_test_top.my_env.agt_apb.drv0 [drv0] Waiting for data from sequencer
UVM_INFO /home/st102/Training/projects/blue_sand/verif/seq/apb_read_write_seq.sv(23) @ 2730: uvm_test_top.my_env.agt_apb.seqr0@@my_seq [SEQ] Generate new item
UVM_INFO /home/st102/Training/projects/blue_sand/verif/seq/apb_read_write_seq.sv(24) @ 2730: uvm_test_top.my_env.agt_apb.seqr0@@my_seq [SEQ] Seq send PKT to Driver: ADDR = 5, pwrite = 1, pwdata = 23f9c0a6, prdata = 0, pslverr = 0, delay = 5
UVM_INFO /home/st102/Training/projects/blue_sand/verif/sv/driver_apb.sv(29) @ 2950: uvm_test_top.my_env.agt_apb.drv0 [drv0] Waiting for data from sequencer
UVM_INFO /home/st102/Training/projects/blue_sand/verif/seq/apb_read_write_seq.sv(23) @ 2950: uvm_test_top.my_env.agt_apb.seqr0@@my_seq [SEQ] Generate new item
UVM_INFO /home/st102/Training/projects/blue_sand/verif/seq/apb_read_write_seq.sv(24) @ 2950: uvm_test_top.my_env.agt_apb.seqr0@@my_seq [SEQ] Seq send PKT to Driver: ADDR = 6, pwrite = 0, pwdata = c8857fe0, prdata = 0, pslverr = 0, delay = 5
UVM_INFO /home/st102/Training/projects/blue_sand/verif/sv/driver_apb.sv(29) @ 3170: uvm_test_top.my_env.agt_apb.drv0 [drv0] Waiting for data from sequencer
UVM_INFO /home/st102/Training/projects/blue_sand/verif/seq/apb_read_write_seq.sv(23) @ 3170: uvm_test_top.my_env.agt_apb.seqr0@@my_seq [SEQ] Generate new item
UVM_INFO /home/st102/Training/projects/blue_sand/verif/seq/apb_read_write_seq.sv(24) @ 3170: uvm_test_top.my_env.agt_apb.seqr0@@my_seq [SEQ] Seq send PKT to Driver: ADDR = 3, pwrite = 0, pwdata = d85df37, prdata = 0, pslverr = 0, delay = 3
UVM_INFO /home/st102/Training/projects/blue_sand/verif/sv/driver_apb.sv(29) @ 3350: uvm_test_top.my_env.agt_apb.drv0 [drv0] Waiting for data from sequencer
UVM_INFO /home/st102/Training/projects/blue_sand/verif/seq/apb_read_write_seq.sv(23) @ 3350: uvm_test_top.my_env.agt_apb.seqr0@@my_seq [SEQ] Generate new item
UVM_INFO /home/st102/Training/projects/blue_sand/verif/seq/apb_read_write_seq.sv(24) @ 3350: uvm_test_top.my_env.agt_apb.seqr0@@my_seq [SEQ] Seq send PKT to Driver: ADDR = 1, pwrite = 1, pwdata = 6cbb626e, prdata = 0, pslverr = 0, delay = 5
UVM_INFO /home/st102/Training/projects/blue_sand/verif/sv/driver_apb.sv(29) @ 3570: uvm_test_top.my_env.agt_apb.drv0 [drv0] Waiting for data from sequencer
UVM_INFO /home/st102/Training/projects/blue_sand/verif/seq/apb_read_write_seq.sv(23) @ 3570: uvm_test_top.my_env.agt_apb.seqr0@@my_seq [SEQ] Generate new item
UVM_INFO /home/st102/Training/projects/blue_sand/verif/seq/apb_read_write_seq.sv(24) @ 3570: uvm_test_top.my_env.agt_apb.seqr0@@my_seq [SEQ] Seq send PKT to Driver: ADDR = 3, pwrite = 1, pwdata = ef693c47, prdata = 0, pslverr = 0, delay = 5
UVM_INFO /home/st102/Training/projects/blue_sand/verif/sv/driver_apb.sv(29) @ 3790: uvm_test_top.my_env.agt_apb.drv0 [drv0] Waiting for data from sequencer
UVM_INFO /home/st102/Training/projects/blue_sand/verif/seq/apb_read_write_seq.sv(23) @ 3790: uvm_test_top.my_env.agt_apb.seqr0@@my_seq [SEQ] Generate new item
UVM_INFO /home/st102/Training/projects/blue_sand/verif/seq/apb_read_write_seq.sv(24) @ 3790: uvm_test_top.my_env.agt_apb.seqr0@@my_seq [SEQ] Seq send PKT to Driver: ADDR = 0, pwrite = 1, pwdata = ce3994a3, prdata = 0, pslverr = 0, delay = 0
UVM_INFO /home/st102/Training/projects/blue_sand/verif/sv/driver_apb.sv(29) @ 3910: uvm_test_top.my_env.agt_apb.drv0 [drv0] Waiting for data from sequencer
UVM_INFO /home/st102/Training/projects/blue_sand/verif/seq/apb_read_write_seq.sv(23) @ 3910: uvm_test_top.my_env.agt_apb.seqr0@@my_seq [SEQ] Generate new item
UVM_INFO /home/st102/Training/projects/blue_sand/verif/seq/apb_read_write_seq.sv(24) @ 3910: uvm_test_top.my_env.agt_apb.seqr0@@my_seq [SEQ] Seq send PKT to Driver: ADDR = 0, pwrite = 1, pwdata = 4a9636e9, prdata = 0, pslverr = 0, delay = 0
UVM_INFO /home/st102/Training/projects/blue_sand/verif/sv/driver_apb.sv(29) @ 4030: uvm_test_top.my_env.agt_apb.drv0 [drv0] Waiting for data from sequencer
UVM_INFO /home/st102/Training/projects/blue_sand/verif/seq/apb_read_write_seq.sv(23) @ 4030: uvm_test_top.my_env.agt_apb.seqr0@@my_seq [SEQ] Generate new item
UVM_INFO /home/st102/Training/projects/blue_sand/verif/seq/apb_read_write_seq.sv(24) @ 4030: uvm_test_top.my_env.agt_apb.seqr0@@my_seq [SEQ] Seq send PKT to Driver: ADDR = 6, pwrite = 0, pwdata = 9c1bdc78, prdata = 0, pslverr = 0, delay = 1
UVM_INFO /home/st102/Training/projects/blue_sand/verif/sv/driver_apb.sv(29) @ 4170: uvm_test_top.my_env.agt_apb.drv0 [drv0] Waiting for data from sequencer
UVM_INFO /home/st102/Training/projects/blue_sand/verif/seq/apb_read_write_seq.sv(23) @ 4170: uvm_test_top.my_env.agt_apb.seqr0@@my_seq [SEQ] Generate new item
UVM_INFO /home/st102/Training/projects/blue_sand/verif/seq/apb_read_write_seq.sv(24) @ 4170: uvm_test_top.my_env.agt_apb.seqr0@@my_seq [SEQ] Seq send PKT to Driver: ADDR = 3, pwrite = 1, pwdata = 8a5d84bc, prdata = 0, pslverr = 0, delay = 3
UVM_INFO /home/st102/Training/projects/blue_sand/verif/sv/driver_apb.sv(29) @ 4350: uvm_test_top.my_env.agt_apb.drv0 [drv0] Waiting for data from sequencer
UVM_INFO /home/st102/Training/projects/blue_sand/verif/seq/apb_read_write_seq.sv(23) @ 4350: uvm_test_top.my_env.agt_apb.seqr0@@my_seq [SEQ] Generate new item
UVM_INFO /home/st102/Training/projects/blue_sand/verif/seq/apb_read_write_seq.sv(24) @ 4350: uvm_test_top.my_env.agt_apb.seqr0@@my_seq [SEQ] Seq send PKT to Driver: ADDR = 1, pwrite = 0, pwdata = 806c60f2, prdata = 0, pslverr = 0, delay = 1
UVM_INFO /home/st102/Training/projects/blue_sand/verif/sv/driver_apb.sv(29) @ 4490: uvm_test_top.my_env.agt_apb.drv0 [drv0] Waiting for data from sequencer
UVM_INFO /home/st102/Training/projects/blue_sand/verif/seq/apb_read_write_seq.sv(23) @ 4490: uvm_test_top.my_env.agt_apb.seqr0@@my_seq [SEQ] Generate new item
UVM_INFO /home/st102/Training/projects/blue_sand/verif/seq/apb_read_write_seq.sv(24) @ 4490: uvm_test_top.my_env.agt_apb.seqr0@@my_seq [SEQ] Seq send PKT to Driver: ADDR = 6, pwrite = 0, pwdata = 2a2f72ab, prdata = 0, pslverr = 0, delay = 3
UVM_INFO /home/st102/Training/projects/blue_sand/verif/sv/driver_apb.sv(29) @ 4670: uvm_test_top.my_env.agt_apb.drv0 [drv0] Waiting for data from sequencer
UVM_INFO /home/st102/Training/projects/blue_sand/verif/seq/apb_read_write_seq.sv(23) @ 4670: uvm_test_top.my_env.agt_apb.seqr0@@my_seq [SEQ] Generate new item
UVM_INFO /home/st102/Training/projects/blue_sand/verif/seq/apb_read_write_seq.sv(24) @ 4670: uvm_test_top.my_env.agt_apb.seqr0@@my_seq [SEQ] Seq send PKT to Driver: ADDR = 4, pwrite = 1, pwdata = be51def5, prdata = 0, pslverr = 0, delay = 3
UVM_INFO /home/st102/Training/projects/blue_sand/verif/sv/driver_apb.sv(29) @ 4850: uvm_test_top.my_env.agt_apb.drv0 [drv0] Waiting for data from sequencer
UVM_INFO /home/st102/Training/projects/blue_sand/verif/seq/apb_read_write_seq.sv(23) @ 4850: uvm_test_top.my_env.agt_apb.seqr0@@my_seq [SEQ] Generate new item
UVM_INFO /home/st102/Training/projects/blue_sand/verif/seq/apb_read_write_seq.sv(24) @ 4850: uvm_test_top.my_env.agt_apb.seqr0@@my_seq [SEQ] Seq send PKT to Driver: ADDR = 0, pwrite = 1, pwdata = a1247b4f, prdata = 0, pslverr = 0, delay = 4
UVM_INFO /home/st102/Training/projects/blue_sand/verif/sv/driver_apb.sv(29) @ 5050: uvm_test_top.my_env.agt_apb.drv0 [drv0] Waiting for data from sequencer
UVM_INFO /home/st102/Training/projects/blue_sand/verif/seq/apb_read_write_seq.sv(23) @ 5050: uvm_test_top.my_env.agt_apb.seqr0@@my_seq [SEQ] Generate new item
UVM_INFO /home/st102/Training/projects/blue_sand/verif/seq/apb_read_write_seq.sv(24) @ 5050: uvm_test_top.my_env.agt_apb.seqr0@@my_seq [SEQ] Seq send PKT to Driver: ADDR = 4, pwrite = 1, pwdata = 69fa514a, prdata = 0, pslverr = 0, delay = 2
UVM_INFO /home/st102/Training/projects/blue_sand/verif/sv/driver_apb.sv(29) @ 5210: uvm_test_top.my_env.agt_apb.drv0 [drv0] Waiting for data from sequencer
UVM_INFO /home/st102/Training/projects/blue_sand/verif/seq/apb_read_write_seq.sv(23) @ 5210: uvm_test_top.my_env.agt_apb.seqr0@@my_seq [SEQ] Generate new item
UVM_INFO /home/st102/Training/projects/blue_sand/verif/seq/apb_read_write_seq.sv(24) @ 5210: uvm_test_top.my_env.agt_apb.seqr0@@my_seq [SEQ] Seq send PKT to Driver: ADDR = 4, pwrite = 0, pwdata = a4f21322, prdata = 0, pslverr = 0, delay = 3
UVM_INFO /home/st102/Training/projects/blue_sand/verif/sv/driver_apb.sv(29) @ 5390: uvm_test_top.my_env.agt_apb.drv0 [drv0] Waiting for data from sequencer
UVM_INFO /home/st102/Training/projects/blue_sand/verif/seq/apb_read_write_seq.sv(23) @ 5390: uvm_test_top.my_env.agt_apb.seqr0@@my_seq [SEQ] Generate new item
UVM_INFO /home/st102/Training/projects/blue_sand/verif/seq/apb_read_write_seq.sv(24) @ 5390: uvm_test_top.my_env.agt_apb.seqr0@@my_seq [SEQ] Seq send PKT to Driver: ADDR = 2, pwrite = 1, pwdata = 362fc57f, prdata = 0, pslverr = 0, delay = 2
UVM_INFO /home/st102/Training/projects/blue_sand/verif/sv/driver_apb.sv(29) @ 5550: uvm_test_top.my_env.agt_apb.drv0 [drv0] Waiting for data from sequencer
UVM_INFO /home/st102/Training/projects/blue_sand/verif/seq/apb_read_write_seq.sv(23) @ 5550: uvm_test_top.my_env.agt_apb.seqr0@@my_seq [SEQ] Generate new item
UVM_INFO /home/st102/Training/projects/blue_sand/verif/seq/apb_read_write_seq.sv(24) @ 5550: uvm_test_top.my_env.agt_apb.seqr0@@my_seq [SEQ] Seq send PKT to Driver: ADDR = 5, pwrite = 0, pwdata = 8c640a4b, prdata = 0, pslverr = 0, delay = 5
UVM_ERROR /home/st102/Training/projects/blue_sand/verif/sv/scoreboard_counter.sv(77) @ 5670: uvm_test_top.my_env.scbd_counter [SCB] Mismatch [READ] @0x5: exp = 0x0 act = 0x6e
UVM_INFO /home/st102/Training/projects/blue_sand/verif/sv/driver_apb.sv(29) @ 5770: uvm_test_top.my_env.agt_apb.drv0 [drv0] Waiting for data from sequencer
UVM_INFO /home/st102/Training/projects/blue_sand/verif/seq/apb_read_write_seq.sv(23) @ 5770: uvm_test_top.my_env.agt_apb.seqr0@@my_seq [SEQ] Generate new item
UVM_INFO /home/st102/Training/projects/blue_sand/verif/seq/apb_read_write_seq.sv(24) @ 5770: uvm_test_top.my_env.agt_apb.seqr0@@my_seq [SEQ] Seq send PKT to Driver: ADDR = 2, pwrite = 0, pwdata = c29782c4, prdata = 0, pslverr = 0, delay = 1
UVM_INFO /home/st102/Training/projects/blue_sand/verif/sv/driver_apb.sv(29) @ 5910: uvm_test_top.my_env.agt_apb.drv0 [drv0] Waiting for data from sequencer
UVM_INFO /home/st102/Training/projects/blue_sand/verif/seq/apb_read_write_seq.sv(23) @ 5910: uvm_test_top.my_env.agt_apb.seqr0@@my_seq [SEQ] Generate new item
UVM_INFO /home/st102/Training/projects/blue_sand/verif/seq/apb_read_write_seq.sv(24) @ 5910: uvm_test_top.my_env.agt_apb.seqr0@@my_seq [SEQ] Seq send PKT to Driver: ADDR = 3, pwrite = 0, pwdata = 79167567, prdata = 0, pslverr = 0, delay = 3
UVM_INFO /home/st102/Training/projects/blue_sand/verif/sv/driver_apb.sv(29) @ 6090: uvm_test_top.my_env.agt_apb.drv0 [drv0] Waiting for data from sequencer
UVM_INFO /home/st102/Training/projects/blue_sand/verif/seq/apb_read_write_seq.sv(23) @ 6090: uvm_test_top.my_env.agt_apb.seqr0@@my_seq [SEQ] Generate new item
UVM_INFO /home/st102/Training/projects/blue_sand/verif/seq/apb_read_write_seq.sv(24) @ 6090: uvm_test_top.my_env.agt_apb.seqr0@@my_seq [SEQ] Seq send PKT to Driver: ADDR = 4, pwrite = 1, pwdata = 7bbd8706, prdata = 0, pslverr = 0, delay = 5
UVM_INFO /home/st102/Training/projects/blue_sand/verif/sv/driver_apb.sv(29) @ 6310: uvm_test_top.my_env.agt_apb.drv0 [drv0] Waiting for data from sequencer
UVM_INFO /home/st102/Training/projects/blue_sand/verif/seq/apb_read_write_seq.sv(23) @ 6310: uvm_test_top.my_env.agt_apb.seqr0@@my_seq [SEQ] Generate new item
UVM_INFO /home/st102/Training/projects/blue_sand/verif/seq/apb_read_write_seq.sv(24) @ 6310: uvm_test_top.my_env.agt_apb.seqr0@@my_seq [SEQ] Seq send PKT to Driver: ADDR = 4, pwrite = 0, pwdata = 141247f9, prdata = 0, pslverr = 0, delay = 4
UVM_INFO /home/st102/Training/projects/blue_sand/verif/sv/driver_apb.sv(29) @ 6510: uvm_test_top.my_env.agt_apb.drv0 [drv0] Waiting for data from sequencer
UVM_INFO /home/st102/Training/projects/blue_sand/verif/seq/apb_read_write_seq.sv(23) @ 6510: uvm_test_top.my_env.agt_apb.seqr0@@my_seq [SEQ] Generate new item
UVM_INFO /home/st102/Training/projects/blue_sand/verif/seq/apb_read_write_seq.sv(24) @ 6510: uvm_test_top.my_env.agt_apb.seqr0@@my_seq [SEQ] Seq send PKT to Driver: ADDR = 4, pwrite = 1, pwdata = ae458a45, prdata = 0, pslverr = 0, delay = 4
UVM_INFO /home/st102/Training/projects/blue_sand/verif/sv/driver_apb.sv(29) @ 6710: uvm_test_top.my_env.agt_apb.drv0 [drv0] Waiting for data from sequencer
UVM_INFO /home/st102/Training/projects/blue_sand/verif/seq/apb_read_write_seq.sv(23) @ 6710: uvm_test_top.my_env.agt_apb.seqr0@@my_seq [SEQ] Generate new item
UVM_INFO /home/st102/Training/projects/blue_sand/verif/seq/apb_read_write_seq.sv(24) @ 6710: uvm_test_top.my_env.agt_apb.seqr0@@my_seq [SEQ] Seq send PKT to Driver: ADDR = 1, pwrite = 0, pwdata = d53c8d80, prdata = 0, pslverr = 0, delay = 2
UVM_INFO /home/st102/Training/projects/blue_sand/verif/sv/driver_apb.sv(29) @ 6870: uvm_test_top.my_env.agt_apb.drv0 [drv0] Waiting for data from sequencer
UVM_INFO /home/st102/Training/projects/blue_sand/verif/seq/apb_read_write_seq.sv(23) @ 6870: uvm_test_top.my_env.agt_apb.seqr0@@my_seq [SEQ] Generate new item
UVM_INFO /home/st102/Training/projects/blue_sand/verif/seq/apb_read_write_seq.sv(24) @ 6870: uvm_test_top.my_env.agt_apb.seqr0@@my_seq [SEQ] Seq send PKT to Driver: ADDR = 4, pwrite = 0, pwdata = cbf915a7, prdata = 0, pslverr = 0, delay = 0
UVM_INFO /home/st102/Training/projects/blue_sand/verif/sv/driver_apb.sv(29) @ 6990: uvm_test_top.my_env.agt_apb.drv0 [drv0] Waiting for data from sequencer
UVM_INFO /home/st102/Training/projects/blue_sand/verif/seq/apb_read_write_seq.sv(23) @ 6990: uvm_test_top.my_env.agt_apb.seqr0@@my_seq [SEQ] Generate new item
UVM_INFO /home/st102/Training/projects/blue_sand/verif/seq/apb_read_write_seq.sv(24) @ 6990: uvm_test_top.my_env.agt_apb.seqr0@@my_seq [SEQ] Seq send PKT to Driver: ADDR = 2, pwrite = 0, pwdata = ed1962bc, prdata = 0, pslverr = 0, delay = 5
UVM_INFO /home/st102/Training/projects/blue_sand/verif/sv/driver_apb.sv(29) @ 7210: uvm_test_top.my_env.agt_apb.drv0 [drv0] Waiting for data from sequencer
UVM_INFO /home/st102/Training/projects/blue_sand/verif/seq/apb_read_write_seq.sv(23) @ 7210: uvm_test_top.my_env.agt_apb.seqr0@@my_seq [SEQ] Generate new item
UVM_INFO /home/st102/Training/projects/blue_sand/verif/seq/apb_read_write_seq.sv(24) @ 7210: uvm_test_top.my_env.agt_apb.seqr0@@my_seq [SEQ] Seq send PKT to Driver: ADDR = 5, pwrite = 0, pwdata = 60899b5d, prdata = 0, pslverr = 0, delay = 2
UVM_ERROR /home/st102/Training/projects/blue_sand/verif/sv/scoreboard_counter.sv(77) @ 7330: uvm_test_top.my_env.scbd_counter [SCB] Mismatch [READ] @0x5: exp = 0x0 act = 0x6e
UVM_INFO /home/st102/Training/projects/blue_sand/verif/sv/driver_apb.sv(29) @ 7370: uvm_test_top.my_env.agt_apb.drv0 [drv0] Waiting for data from sequencer
UVM_INFO /home/st102/Training/projects/blue_sand/verif/seq/apb_read_write_seq.sv(23) @ 7370: uvm_test_top.my_env.agt_apb.seqr0@@my_seq [SEQ] Generate new item
UVM_INFO /home/st102/Training/projects/blue_sand/verif/seq/apb_read_write_seq.sv(24) @ 7370: uvm_test_top.my_env.agt_apb.seqr0@@my_seq [SEQ] Seq send PKT to Driver: ADDR = 1, pwrite = 0, pwdata = 5ad2360f, prdata = 0, pslverr = 0, delay = 4
